[{"id":1,"first_name":"Wainwright","last_name":"Legges","email":"wlegges0@mashable.com","gender":"Male"},
{"id":2,"first_name":"Wileen","last_name":"Guidini","email":"wguidini1@answers.com","gender":"Female"},
{"id":3,"first_name":"Derrik","last_name":"Quesne","email":"dquesne2@fastcompany.com","gender":"Male"},
{"id":4,"first_name":"Donnajean","last_name":"Ridulfo","email":"dridulfo3@merriam-webster.com","gender":"Female"},
{"id":5,"first_name":"Eunice","last_name":"Petras","email":"epetras4@japanpost.jp","gender":"Female"},
{"id":6,"first_name":"Ileana","last_name":"Fancett","email":"ifancett5@amazon.com","gender":"Female"},
{"id":7,"first_name":"Danni","last_name":"Sancias","email":"dsancias6@sciencedirect.com","gender":"Polygender"},
{"id":8,"first_name":"Tana","last_name":"Linzee","email":"tlinzee7@usatoday.com","gender":"Female"},
{"id":9,"first_name":"Fulvia","last_name":"Ferrey","email":"fferrey8@guardian.co.uk","gender":"Female"},
{"id":10,"first_name":"Leonanie","last_name":"Tresise","email":"ltresise9@nymag.com","gender":"Female"},
{"id":11,"first_name":"Dory","last_name":"O'Sheils","email":"dosheilsa@lulu.com","gender":"Female"},
{"id":12,"first_name":"Leonid","last_name":"Wessel","email":"lwesselb@cloudflare.com","gender":"Male"},
{"id":13,"first_name":"Davine","last_name":"Jiru","email":"djiruc@opensource.org","gender":"Female"},
{"id":14,"first_name":"Tasha","last_name":"Scheffler","email":"tschefflerd@jiathis.com","gender":"Female"},
{"id":15,"first_name":"Stephenie","last_name":"Godain","email":"sgodaine@creativecommons.org","gender":"Female"},
{"id":16,"first_name":"Jewel","last_name":"Abrahamsohn","email":"jabrahamsohnf@google.com.br","gender":"Female"},
{"id":17,"first_name":"Stepha","last_name":"Petrushkevich","email":"spetrushkevichg@jimdo.com","gender":"Genderqueer"},
{"id":18,"first_name":"Desmund","last_name":"Vickerstaff","email":"dvickerstaffh@free.fr","gender":"Bigender"},
{"id":19,"first_name":"Kerk","last_name":"Conigsby","email":"kconigsbyi@live.com","gender":"Male"},
{"id":20,"first_name":"Bogart","last_name":"Wawer","email":"bwawerj@chronoengine.com","gender":"Male"},
{"id":21,"first_name":"Milty","last_name":"Leagas","email":"mleagask@g.co","gender":"Male"},
{"id":22,"first_name":"Kip","last_name":"Fordy","email":"kfordyl@google.ca","gender":"Female"},
{"id":23,"first_name":"Abel","last_name":"Kuhle","email":"akuhlem@purevolume.com","gender":"Non-binary"},
{"id":24,"first_name":"Marthe","last_name":"Belsher","email":"mbelshern@jigsy.com","gender":"Genderqueer"},
{"id":25,"first_name":"Nathanil","last_name":"Paddeley","email":"npaddeleyo@issuu.com","gender":"Male"},
{"id":26,"first_name":"Jud","last_name":"Ewen","email":"jewenp@tripod.com","gender":"Male"},
{"id":27,"first_name":"Loutitia","last_name":"Axton","email":"laxtonq@nydailynews.com","gender":"Female"},
{"id":28,"first_name":"Wendi","last_name":"Harwood","email":"wharwoodr@spotify.com","gender":"Female"},
{"id":29,"first_name":"Leland","last_name":"Dennehy","email":"ldennehys@pinterest.com","gender":"Male"},
{"id":30,"first_name":"Rona","last_name":"Kneeland","email":"rkneelandt@wired.com","gender":"Female"},
{"id":31,"first_name":"Kathie","last_name":"Hethron","email":"khethronu@ca.gov","gender":"Female"},
{"id":32,"first_name":"Ruthie","last_name":"Barter","email":"rbarterv@artisteer.com","gender":"Female"},
{"id":33,"first_name":"Robinette","last_name":"Goranov","email":"rgoranovw@tinypic.com","gender":"Female"},
{"id":34,"first_name":"Lissa","last_name":"Bason","email":"lbasonx@disqus.com","gender":"Female"},
{"id":35,"first_name":"Randy","last_name":"Pleuman","email":"rpleumany@lulu.com","gender":"Male"},
{"id":36,"first_name":"Noni","last_name":"Durston","email":"ndurstonz@wunderground.com","gender":"Female"},
{"id":37,"first_name":"Olia","last_name":"Dring","email":"odring10@t.co","gender":"Female"},
{"id":38,"first_name":"Dotty","last_name":"Bartoszewski","email":"dbartoszewski11@buzzfeed.com","gender":"Female"},
{"id":39,"first_name":"Friedrich","last_name":"Gontier","email":"fgontier12@cnbc.com","gender":"Agender"},
{"id":40,"first_name":"Gregoire","last_name":"Scrooby","email":"gscrooby13@icio.us","gender":"Male"},
{"id":41,"first_name":"Candy","last_name":"Davenhall","email":"cdavenhall14@washingtonpost.com","gender":"Female"},
{"id":42,"first_name":"Kirstin","last_name":"McCall","email":"kmccall15@cornell.edu","gender":"Female"},
{"id":43,"first_name":"Heywood","last_name":"Dubble","email":"hdubble16@jugem.jp","gender":"Male"},
{"id":44,"first_name":"Franz","last_name":"Winkell","email":"fwinkell17@twitpic.com","gender":"Male"},
{"id":45,"first_name":"Renelle","last_name":"de la Valette Parisot","email":"rdelavaletteparisot18@skype.com","gender":"Female"},
{"id":46,"first_name":"Iago","last_name":"Bartlomiej","email":"ibartlomiej19@csmonitor.com","gender":"Male"},
{"id":47,"first_name":"Cristian","last_name":"Chittock","email":"cchittock1a@live.com","gender":"Male"},
{"id":48,"first_name":"Izzy","last_name":"Mannie","email":"imannie1b@storify.com","gender":"Male"},
{"id":49,"first_name":"Robyn","last_name":"Lujan","email":"rlujan1c@nbcnews.com","gender":"Female"},
{"id":50,"first_name":"Randy","last_name":"Rowaszkiewicz","email":"rrowaszkiewicz1d@sphinn.com","gender":"Genderqueer"},
{"id":51,"first_name":"Karim","last_name":"Heball","email":"kheball1e@msn.com","gender":"Male"},
{"id":52,"first_name":"Gorden","last_name":"Rosebotham","email":"grosebotham1f@smugmug.com","gender":"Genderfluid"},
{"id":53,"first_name":"Nikki","last_name":"Dearle-Palser","email":"ndearlepalser1g@buzzfeed.com","gender":"Male"},
{"id":54,"first_name":"Cris","last_name":"Eiler","email":"ceiler1h@utexas.edu","gender":"Female"},
{"id":55,"first_name":"Alford","last_name":"Bills","email":"abills1i@slashdot.org","gender":"Male"},
{"id":56,"first_name":"Carleton","last_name":"Coultish","email":"ccoultish1j@csmonitor.com","gender":"Male"},
{"id":57,"first_name":"Price","last_name":"Sonschein","email":"psonschein1k@tinyurl.com","gender":"Male"},
{"id":58,"first_name":"Car","last_name":"Aspland","email":"caspland1l@go.com","gender":"Bigender"},
{"id":59,"first_name":"Timotheus","last_name":"Canfer","email":"tcanfer1m@elegantthemes.com","gender":"Male"},
{"id":60,"first_name":"Heda","last_name":"Matzaitis","email":"hmatzaitis1n@jalbum.net","gender":"Female"},
{"id":61,"first_name":"Elsy","last_name":"McLugish","email":"emclugish1o@sohu.com","gender":"Female"},
{"id":62,"first_name":"Lazaro","last_name":"Philippou","email":"lphilippou1p@arstechnica.com","gender":"Male"},
{"id":63,"first_name":"Weidar","last_name":"Espinay","email":"wespinay1q@imgur.com","gender":"Male"},
{"id":64,"first_name":"Vernon","last_name":"Chessell","email":"vchessell1r@ucoz.ru","gender":"Male"},
{"id":65,"first_name":"Marketa","last_name":"Horrigan","email":"mhorrigan1s@edublogs.org","gender":"Female"},
{"id":66,"first_name":"Nadeen","last_name":"Arunowicz","email":"narunowicz1t@elpais.com","gender":"Female"},
{"id":67,"first_name":"Worthy","last_name":"Patesel","email":"wpatesel1u@php.net","gender":"Male"},
{"id":68,"first_name":"Hermione","last_name":"Shier","email":"hshier1v@phoca.cz","gender":"Female"},
{"id":69,"first_name":"Horace","last_name":"Millis","email":"hmillis1w@example.com","gender":"Male"},
{"id":70,"first_name":"Hendrik","last_name":"Lightbourne","email":"hlightbourne1x@ted.com","gender":"Male"},
{"id":71,"first_name":"Larina","last_name":"Whitelock","email":"lwhitelock1y@virginia.edu","gender":"Female"},
{"id":72,"first_name":"Moise","last_name":"Giacopazzi","email":"mgiacopazzi1z@yellowbook.com","gender":"Male"},
{"id":73,"first_name":"Winnah","last_name":"Winscomb","email":"wwinscomb20@arstechnica.com","gender":"Agender"},
{"id":74,"first_name":"Zacharie","last_name":"Petkovic","email":"zpetkovic21@lulu.com","gender":"Male"},
{"id":75,"first_name":"Tina","last_name":"Huxter","email":"thuxter22@mapquest.com","gender":"Female"},
{"id":76,"first_name":"Jillana","last_name":"Gigg","email":"jgigg23@blogger.com","gender":"Agender"},
{"id":77,"first_name":"Sioux","last_name":"Burdfield","email":"sburdfield24@gravatar.com","gender":"Female"},
{"id":78,"first_name":"Jewel","last_name":"Laing","email":"jlaing25@si.edu","gender":"Female"},
{"id":79,"first_name":"Melinde","last_name":"Cirlos","email":"mcirlos26@blinklist.com","gender":"Female"},
{"id":80,"first_name":"Martha","last_name":"Studdard","email":"mstuddard27@cnbc.com","gender":"Female"},
{"id":81,"first_name":"Jilli","last_name":"Bycraft","email":"jbycraft28@edublogs.org","gender":"Female"},
{"id":82,"first_name":"Halli","last_name":"Girodon","email":"hgirodon29@yolasite.com","gender":"Female"},
{"id":83,"first_name":"Ninnette","last_name":"Flescher","email":"nflescher2a@bloomberg.com","gender":"Female"},
{"id":84,"first_name":"Arlena","last_name":"Morfey","email":"amorfey2b@angelfire.com","gender":"Female"},
{"id":85,"first_name":"Abbott","last_name":"Kimbrey","email":"akimbrey2c@gravatar.com","gender":"Male"},
{"id":86,"first_name":"Dick","last_name":"Tonbridge","email":"dtonbridge2d@prweb.com","gender":"Male"},
{"id":87,"first_name":"Angeli","last_name":"Dorin","email":"adorin2e@xing.com","gender":"Polygender"},
{"id":88,"first_name":"Barbey","last_name":"O'Kane","email":"bokane2f@globo.com","gender":"Female"},
{"id":89,"first_name":"Concordia","last_name":"Ackermann","email":"cackermann2g@globo.com","gender":"Female"},
{"id":90,"first_name":"Arne","last_name":"Lindback","email":"alindback2h@mail.ru","gender":"Male"},
{"id":91,"first_name":"Rianon","last_name":"Haselwood","email":"rhaselwood2i@tiny.cc","gender":"Bigender"},
{"id":92,"first_name":"Adolphe","last_name":"Frowd","email":"afrowd2j@domainmarket.com","gender":"Male"},
{"id":93,"first_name":"Daveen","last_name":"Gash","email":"dgash2k@squidoo.com","gender":"Female"},
{"id":94,"first_name":"Herbert","last_name":"Toy","email":"htoy2l@deliciousdays.com","gender":"Male"},
{"id":95,"first_name":"Minne","last_name":"Couthard","email":"mcouthard2m@harvard.edu","gender":"Female"},
{"id":96,"first_name":"Benetta","last_name":"Kester","email":"bkester2n@dot.gov","gender":"Female"},
{"id":97,"first_name":"Cassaundra","last_name":"Dussy","email":"cdussy2o@ucoz.com","gender":"Female"},
{"id":98,"first_name":"Zita","last_name":"Deveraux","email":"zdeveraux2p@nydailynews.com","gender":"Bigender"},
{"id":99,"first_name":"Dulce","last_name":"Cyseley","email":"dcyseley2q@examiner.com","gender":"Female"},
{"id":100,"first_name":"Elsie","last_name":"Burdus","email":"eburdus2r@skype.com","gender":"Female"},
{"id":101,"first_name":"Olly","last_name":"Jessen","email":"ojessen2s@bandcamp.com","gender":"Male"},
{"id":102,"first_name":"Chase","last_name":"Grisedale","email":"cgrisedale2t@webmd.com","gender":"Male"},
{"id":103,"first_name":"Ashley","last_name":"Dungey","email":"adungey2u@macromedia.com","gender":"Female"},
{"id":104,"first_name":"Sigrid","last_name":"Larvin","email":"slarvin2v@live.com","gender":"Non-binary"},
{"id":105,"first_name":"Torrie","last_name":"Gasnoll","email":"tgasnoll2w@blog.com","gender":"Polygender"},
{"id":106,"first_name":"Cornall","last_name":"Gove","email":"cgove2x@hatena.ne.jp","gender":"Bigender"},
{"id":107,"first_name":"Raynor","last_name":"Wheelan","email":"rwheelan2y@soup.io","gender":"Male"},
{"id":108,"first_name":"Seka","last_name":"Pryce","email":"spryce2z@buzzfeed.com","gender":"Female"},
{"id":109,"first_name":"Horatia","last_name":"Wilne","email":"hwilne30@wiley.com","gender":"Agender"},
{"id":110,"first_name":"Johny","last_name":"McNerlin","email":"jmcnerlin31@discovery.com","gender":"Agender"},
{"id":111,"first_name":"Afton","last_name":"Andre","email":"aandre32@twitpic.com","gender":"Female"},
{"id":112,"first_name":"Bathsheba","last_name":"Ormesher","email":"bormesher33@harvard.edu","gender":"Genderqueer"},
{"id":113,"first_name":"Merissa","last_name":"Humpherston","email":"mhumpherston34@nasa.gov","gender":"Female"},
{"id":114,"first_name":"Dorine","last_name":"Eustis","email":"deustis35@bloglovin.com","gender":"Female"},
{"id":115,"first_name":"Wilmar","last_name":"Vasler","email":"wvasler36@nytimes.com","gender":"Non-binary"},
{"id":116,"first_name":"Conn","last_name":"McKane","email":"cmckane37@cbsnews.com","gender":"Male"},
{"id":117,"first_name":"Arturo","last_name":"Vertigan","email":"avertigan38@bing.com","gender":"Male"},
{"id":118,"first_name":"Jecho","last_name":"Mariel","email":"jmariel39@geocities.com","gender":"Male"},
{"id":119,"first_name":"Wernher","last_name":"Tordoff","email":"wtordoff3a@bandcamp.com","gender":"Male"},
{"id":120,"first_name":"Nert","last_name":"Goodfellow","email":"ngoodfellow3b@sohu.com","gender":"Female"},
{"id":121,"first_name":"Dennet","last_name":"Scatcher","email":"dscatcher3c@lulu.com","gender":"Polygender"},
{"id":122,"first_name":"Hunter","last_name":"Petyankin","email":"hpetyankin3d@baidu.com","gender":"Male"},
{"id":123,"first_name":"Rosabel","last_name":"Bedson","email":"rbedson3e@marriott.com","gender":"Female"},
{"id":124,"first_name":"Ichabod","last_name":"Ganniclifft","email":"iganniclifft3f@usatoday.com","gender":"Male"},
{"id":125,"first_name":"Ewen","last_name":"Roderick","email":"eroderick3g@newsvine.com","gender":"Male"},
{"id":126,"first_name":"Carley","last_name":"Berthot","email":"cberthot3h@t.co","gender":"Female"},
{"id":127,"first_name":"Gwenora","last_name":"Oade","email":"goade3i@miitbeian.gov.cn","gender":"Female"},
{"id":128,"first_name":"Ingelbert","last_name":"Hubane","email":"ihubane3j@sakura.ne.jp","gender":"Male"},
{"id":129,"first_name":"Dane","last_name":"Oleszkiewicz","email":"doleszkiewicz3k@apple.com","gender":"Male"},
{"id":130,"first_name":"Ira","last_name":"Fullick","email":"ifullick3l@yahoo.co.jp","gender":"Female"},
{"id":131,"first_name":"Seana","last_name":"De Giorgi","email":"sdegiorgi3m@webnode.com","gender":"Female"},
{"id":132,"first_name":"Cirilo","last_name":"O'Breen","email":"cobreen3n@vk.com","gender":"Male"},
{"id":133,"first_name":"Sayer","last_name":"Von Der Empten","email":"svonderempten3o@a8.net","gender":"Male"},
{"id":134,"first_name":"Gerianna","last_name":"Carlile","email":"gcarlile3p@purevolume.com","gender":"Female"},
{"id":135,"first_name":"Vallie","last_name":"Nuccii","email":"vnuccii3q@prlog.org","gender":"Female"},
{"id":136,"first_name":"Rosaline","last_name":"Wem","email":"rwem3r@163.com","gender":"Female"},
{"id":137,"first_name":"Anitra","last_name":"Hatrey","email":"ahatrey3s@intel.com","gender":"Female"},
{"id":138,"first_name":"Corenda","last_name":"Ledrun","email":"cledrun3t@netscape.com","gender":"Female"},
{"id":139,"first_name":"Euphemia","last_name":"Minchi","email":"eminchi3u@bing.com","gender":"Female"},
{"id":140,"first_name":"Terrence","last_name":"Digger","email":"tdigger3v@shutterfly.com","gender":"Male"},
{"id":141,"first_name":"Rona","last_name":"Ewell","email":"rewell3w@phpbb.com","gender":"Female"},
{"id":142,"first_name":"Christie","last_name":"Dahlgren","email":"cdahlgren3x@surveymonkey.com","gender":"Male"},
{"id":143,"first_name":"Ivie","last_name":"MacCombe","email":"imaccombe3y@godaddy.com","gender":"Female"},
{"id":144,"first_name":"Tobias","last_name":"Margaret","email":"tmargaret3z@cbc.ca","gender":"Male"},
{"id":145,"first_name":"Sebastian","last_name":"Aurelius","email":"saurelius40@yelp.com","gender":"Male"},
{"id":146,"first_name":"Nan","last_name":"Kunze","email":"nkunze41@flickr.com","gender":"Female"},
{"id":147,"first_name":"Colin","last_name":"Boutton","email":"cboutton42@google.ca","gender":"Male"},
{"id":148,"first_name":"Em","last_name":"Loghan","email":"eloghan43@dedecms.com","gender":"Female"},
{"id":149,"first_name":"Armand","last_name":"Sturges","email":"asturges44@nature.com","gender":"Male"},
{"id":150,"first_name":"Germaine","last_name":"Krishtopaittis","email":"gkrishtopaittis45@w3.org","gender":"Male"},
{"id":151,"first_name":"Pavia","last_name":"Gutman","email":"pgutman46@discovery.com","gender":"Female"},
{"id":152,"first_name":"Lonny","last_name":"Rawlcliffe","email":"lrawlcliffe47@pinterest.com","gender":"Male"},
{"id":153,"first_name":"Erroll","last_name":"Titterington","email":"etitterington48@fotki.com","gender":"Male"},
{"id":154,"first_name":"Anna-maria","last_name":"Purdon","email":"apurdon49@biglobe.ne.jp","gender":"Non-binary"},
{"id":155,"first_name":"Diarmid","last_name":"Groomebridge","email":"dgroomebridge4a@themeforest.net","gender":"Male"},
{"id":156,"first_name":"Wendel","last_name":"Broady","email":"wbroady4b@vk.com","gender":"Male"},
{"id":157,"first_name":"Sacha","last_name":"Mixer","email":"smixer4c@mail.ru","gender":"Female"},
{"id":158,"first_name":"Douglas","last_name":"Ousbie","email":"dousbie4d@histats.com","gender":"Male"},
{"id":159,"first_name":"Garrek","last_name":"Stook","email":"gstook4e@furl.net","gender":"Male"},
{"id":160,"first_name":"Far","last_name":"Mosten","email":"fmosten4f@is.gd","gender":"Male"},
{"id":161,"first_name":"Winston","last_name":"Seakes","email":"wseakes4g@dailymotion.com","gender":"Bigender"},
{"id":162,"first_name":"Feliks","last_name":"Gethen","email":"fgethen4h@reverbnation.com","gender":"Male"},
{"id":163,"first_name":"Creight","last_name":"Sundin","email":"csundin4i@pinterest.com","gender":"Genderfluid"},
{"id":164,"first_name":"Sherwin","last_name":"Vincent","email":"svincent4j@noaa.gov","gender":"Male"},
{"id":165,"first_name":"Etty","last_name":"Carlisso","email":"ecarlisso4k@ed.gov","gender":"Female"},
{"id":166,"first_name":"Christin","last_name":"Slimon","email":"cslimon4l@sciencedaily.com","gender":"Female"},
{"id":167,"first_name":"Reagen","last_name":"Janos","email":"rjanos4m@hp.com","gender":"Male"},
{"id":168,"first_name":"Fielding","last_name":"Maling","email":"fmaling4n@a8.net","gender":"Male"},
{"id":169,"first_name":"Randene","last_name":"Parrington","email":"rparrington4o@ftc.gov","gender":"Agender"},
{"id":170,"first_name":"Francene","last_name":"Jaye","email":"fjaye4p@google.co.jp","gender":"Female"},
{"id":171,"first_name":"Rocky","last_name":"Warrick","email":"rwarrick4q@stanford.edu","gender":"Male"},
{"id":172,"first_name":"Carver","last_name":"Whitten","email":"cwhitten4r@nih.gov","gender":"Male"},
{"id":173,"first_name":"Marinna","last_name":"Baker","email":"mbaker4s@hatena.ne.jp","gender":"Genderqueer"},
{"id":174,"first_name":"Meade","last_name":"Rainsden","email":"mrainsden4t@buzzfeed.com","gender":"Male"},
{"id":175,"first_name":"Mariejeanne","last_name":"Pedracci","email":"mpedracci4u@kickstarter.com","gender":"Female"},
{"id":176,"first_name":"Kelley","last_name":"Inglish","email":"kinglish4v@chronoengine.com","gender":"Male"},
{"id":177,"first_name":"Kellsie","last_name":"Woodgate","email":"kwoodgate4w@mit.edu","gender":"Genderqueer"},
{"id":178,"first_name":"Elvyn","last_name":"Apps","email":"eapps4x@house.gov","gender":"Male"},
{"id":179,"first_name":"Angy","last_name":"Alesio","email":"aalesio4y@nps.gov","gender":"Female"},
{"id":180,"first_name":"Caspar","last_name":"Brandli","email":"cbrandli4z@phoca.cz","gender":"Male"},
{"id":181,"first_name":"Julita","last_name":"Pile","email":"jpile50@dailymail.co.uk","gender":"Female"},
{"id":182,"first_name":"Jereme","last_name":"Andrioli","email":"jandrioli51@nydailynews.com","gender":"Male"},
{"id":183,"first_name":"Zahara","last_name":"Feaver","email":"zfeaver52@salon.com","gender":"Female"},
{"id":184,"first_name":"Talya","last_name":"Fawdrie","email":"tfawdrie53@sitemeter.com","gender":"Agender"},
{"id":185,"first_name":"Sigvard","last_name":"Emberton","email":"semberton54@earthlink.net","gender":"Male"},
{"id":186,"first_name":"Gabe","last_name":"Antonietti","email":"gantonietti55@aboutads.info","gender":"Male"},
{"id":187,"first_name":"Petunia","last_name":"Asman","email":"pasman56@umich.edu","gender":"Female"},
{"id":188,"first_name":"Mame","last_name":"Wyer","email":"mwyer57@plala.or.jp","gender":"Female"},
{"id":189,"first_name":"Merilyn","last_name":"Enticott","email":"menticott58@miitbeian.gov.cn","gender":"Female"},
{"id":190,"first_name":"Waldo","last_name":"Fryman","email":"wfryman59@fotki.com","gender":"Male"},
{"id":191,"first_name":"Tiena","last_name":"Meier","email":"tmeier5a@squidoo.com","gender":"Female"},
{"id":192,"first_name":"Lotte","last_name":"Freckleton","email":"lfreckleton5b@businessweek.com","gender":"Female"},
{"id":193,"first_name":"Clarine","last_name":"Hartrick","email":"chartrick5c@google.fr","gender":"Female"},
{"id":194,"first_name":"Arin","last_name":"Gorce","email":"agorce5d@miibeian.gov.cn","gender":"Male"},
{"id":195,"first_name":"Shepherd","last_name":"Dober","email":"sdober5e@hostgator.com","gender":"Male"},
{"id":196,"first_name":"Marianne","last_name":"Millsom","email":"mmillsom5f@ycombinator.com","gender":"Female"},
{"id":197,"first_name":"Glenn","last_name":"Bonnette","email":"gbonnette5g@nbcnews.com","gender":"Female"},
{"id":198,"first_name":"Nathanael","last_name":"Dolman","email":"ndolman5h@tiny.cc","gender":"Male"},
{"id":199,"first_name":"Melania","last_name":"Berisford","email":"mberisford5i@eepurl.com","gender":"Female"},
{"id":200,"first_name":"Hetti","last_name":"Payler","email":"hpayler5j@seesaa.net","gender":"Female"},
{"id":201,"first_name":"Eli","last_name":"Tiffany","email":"etiffany5k@toplist.cz","gender":"Male"},
{"id":202,"first_name":"Giuditta","last_name":"Lighterness","email":"glighterness5l@nba.com","gender":"Female"},
{"id":203,"first_name":"Marthe","last_name":"Cummine","email":"mcummine5m@hc360.com","gender":"Female"},
{"id":204,"first_name":"Jodie","last_name":"Trenchard","email":"jtrenchard5n@woothemes.com","gender":"Male"},
{"id":205,"first_name":"Matthus","last_name":"Hobbema","email":"mhobbema5o@prweb.com","gender":"Genderqueer"},
{"id":206,"first_name":"Cherish","last_name":"MacAllan","email":"cmacallan5p@yolasite.com","gender":"Female"},
{"id":207,"first_name":"Reinald","last_name":"Whiteford","email":"rwhiteford5q@dagondesign.com","gender":"Male"},
{"id":208,"first_name":"Maynord","last_name":"Togwell","email":"mtogwell5r@toplist.cz","gender":"Male"},
{"id":209,"first_name":"Davy","last_name":"Vivians","email":"dvivians5s@census.gov","gender":"Male"},
{"id":210,"first_name":"Gerhardine","last_name":"Yeowell","email":"gyeowell5t@reference.com","gender":"Female"},
{"id":211,"first_name":"Rubi","last_name":"Scholefield","email":"rscholefield5u@simplemachines.org","gender":"Female"},
{"id":212,"first_name":"Roma","last_name":"Ninnis","email":"rninnis5v@eepurl.com","gender":"Male"},
{"id":213,"first_name":"Kassia","last_name":"Spires","email":"kspires5w@wiley.com","gender":"Female"},
{"id":214,"first_name":"Dilan","last_name":"Genn","email":"dgenn5x@scientificamerican.com","gender":"Male"},
{"id":215,"first_name":"Stearne","last_name":"Vanyakin","email":"svanyakin5y@tinypic.com","gender":"Bigender"},
{"id":216,"first_name":"Ozzy","last_name":"Bignall","email":"obignall5z@netvibes.com","gender":"Male"},
{"id":217,"first_name":"Fey","last_name":"Seamon","email":"fseamon60@washingtonpost.com","gender":"Female"},
{"id":218,"first_name":"Laryssa","last_name":"Koschke","email":"lkoschke61@shinystat.com","gender":"Polygender"},
{"id":219,"first_name":"Jarred","last_name":"Corton","email":"jcorton62@virginia.edu","gender":"Male"},
{"id":220,"first_name":"Kailey","last_name":"Kiwitz","email":"kkiwitz63@chronoengine.com","gender":"Female"},
{"id":221,"first_name":"Micah","last_name":"Powelee","email":"mpowelee64@biglobe.ne.jp","gender":"Male"},
{"id":222,"first_name":"Callean","last_name":"Ribchester","email":"cribchester65@ibm.com","gender":"Agender"},
{"id":223,"first_name":"Andrea","last_name":"Gloster","email":"agloster66@epa.gov","gender":"Agender"},
{"id":224,"first_name":"Wilburt","last_name":"McDiarmid","email":"wmcdiarmid67@imageshack.us","gender":"Male"},
{"id":225,"first_name":"Kimmie","last_name":"Lawrance","email":"klawrance68@usatoday.com","gender":"Genderfluid"},
{"id":226,"first_name":"Babbette","last_name":"Warland","email":"bwarland69@economist.com","gender":"Non-binary"},
{"id":227,"first_name":"Allister","last_name":"Janssens","email":"ajanssens6a@cmu.edu","gender":"Male"},
{"id":228,"first_name":"Glory","last_name":"Elcom","email":"gelcom6b@phoca.cz","gender":"Female"},
{"id":229,"first_name":"Gabrila","last_name":"Canning","email":"gcanning6c@google.cn","gender":"Female"},
{"id":230,"first_name":"Bobby","last_name":"Schuler","email":"bschuler6d@ted.com","gender":"Male"},
{"id":231,"first_name":"Darryl","last_name":"Auchterlonie","email":"dauchterlonie6e@bigcartel.com","gender":"Male"},
{"id":232,"first_name":"Judie","last_name":"Sendley","email":"jsendley6f@aboutads.info","gender":"Female"},
{"id":233,"first_name":"Darryl","last_name":"Hellmore","email":"dhellmore6g@redcross.org","gender":"Female"},
{"id":234,"first_name":"Vivia","last_name":"Comber","email":"vcomber6h@microsoft.com","gender":"Female"},
{"id":235,"first_name":"Bob","last_name":"Finding","email":"bfinding6i@lulu.com","gender":"Male"},
{"id":236,"first_name":"Michal","last_name":"Silson","email":"msilson6j@cocolog-nifty.com","gender":"Genderfluid"},
{"id":237,"first_name":"Willamina","last_name":"Swales","email":"wswales6k@hao123.com","gender":"Polygender"},
{"id":238,"first_name":"Banky","last_name":"Maroney","email":"bmaroney6l@live.com","gender":"Male"},
{"id":239,"first_name":"Clive","last_name":"Bigadike","email":"cbigadike6m@oracle.com","gender":"Male"},
{"id":240,"first_name":"Jarvis","last_name":"Miall","email":"jmiall6n@dedecms.com","gender":"Male"},
{"id":241,"first_name":"Daphene","last_name":"Lynd","email":"dlynd6o@google.ca","gender":"Female"},
{"id":242,"first_name":"Mignon","last_name":"Imlaw","email":"mimlaw6p@noaa.gov","gender":"Genderqueer"},
{"id":243,"first_name":"Vince","last_name":"Bracegirdle","email":"vbracegirdle6q@epa.gov","gender":"Male"},
{"id":244,"first_name":"Clim","last_name":"Callister","email":"ccallister6r@sphinn.com","gender":"Male"},
{"id":245,"first_name":"Kamillah","last_name":"Staining","email":"kstaining6s@wired.com","gender":"Female"},
{"id":246,"first_name":"Ilka","last_name":"Wolton","email":"iwolton6t@ox.ac.uk","gender":"Female"},
{"id":247,"first_name":"Broderic","last_name":"Giannoni","email":"bgiannoni6u@yolasite.com","gender":"Male"},
{"id":248,"first_name":"Dayna","last_name":"Henlon","email":"dhenlon6v@taobao.com","gender":"Female"},
{"id":249,"first_name":"Terrell","last_name":"Burg","email":"tburg6w@china.com.cn","gender":"Male"},
{"id":250,"first_name":"Chrissie","last_name":"Le Batteur","email":"clebatteur6x@theguardian.com","gender":"Female"},
{"id":251,"first_name":"Nert","last_name":"Kiddle","email":"nkiddle6y@pbs.org","gender":"Female"},
{"id":252,"first_name":"Freddy","last_name":"Ducker","email":"fducker6z@alexa.com","gender":"Male"},
{"id":253,"first_name":"Ema","last_name":"Stokoe","email":"estokoe70@samsung.com","gender":"Female"},
{"id":254,"first_name":"Halsy","last_name":"Gonsalvo","email":"hgonsalvo71@mozilla.com","gender":"Male"},
{"id":255,"first_name":"Estell","last_name":"Leary","email":"eleary72@icio.us","gender":"Female"},
{"id":256,"first_name":"Milzie","last_name":"Kneeshaw","email":"mkneeshaw73@mapy.cz","gender":"Female"},
{"id":257,"first_name":"Woodman","last_name":"Doerr","email":"wdoerr74@slashdot.org","gender":"Male"},
{"id":258,"first_name":"Eda","last_name":"Keyhoe","email":"ekeyhoe75@etsy.com","gender":"Non-binary"},
{"id":259,"first_name":"Lewie","last_name":"Seebert","email":"lseebert76@hostgator.com","gender":"Male"},
{"id":260,"first_name":"Desiri","last_name":"McGonigle","email":"dmcgonigle77@sogou.com","gender":"Female"},
{"id":261,"first_name":"Nikolia","last_name":"Stubbings","email":"nstubbings78@disqus.com","gender":"Female"},
{"id":262,"first_name":"Maureene","last_name":"Ridd","email":"mridd79@jigsy.com","gender":"Female"},
{"id":263,"first_name":"Woodie","last_name":"Hindrich","email":"whindrich7a@amazonaws.com","gender":"Male"},
{"id":264,"first_name":"Carey","last_name":"Haws","email":"chaws7b@shutterfly.com","gender":"Male"},
{"id":265,"first_name":"Giustina","last_name":"Sharma","email":"gsharma7c@xing.com","gender":"Female"},
{"id":266,"first_name":"Micky","last_name":"McAirt","email":"mmcairt7d@plala.or.jp","gender":"Non-binary"},
{"id":267,"first_name":"Quincey","last_name":"McFaul","email":"qmcfaul7e@altervista.org","gender":"Male"},
{"id":268,"first_name":"Nil","last_name":"Drinkhill","email":"ndrinkhill7f@e-recht24.de","gender":"Male"},
{"id":269,"first_name":"Alvie","last_name":"Nisen","email":"anisen7g@sitemeter.com","gender":"Male"},
{"id":270,"first_name":"Haily","last_name":"Descroix","email":"hdescroix7h@pen.io","gender":"Female"},
{"id":271,"first_name":"Abbie","last_name":"Castillon","email":"acastillon7i@ucoz.ru","gender":"Male"},
{"id":272,"first_name":"Jennette","last_name":"Sudddard","email":"jsudddard7j@ibm.com","gender":"Bigender"},
{"id":273,"first_name":"Theda","last_name":"Evans","email":"tevans7k@people.com.cn","gender":"Polygender"},
{"id":274,"first_name":"Dani","last_name":"Eddis","email":"deddis7l@123-reg.co.uk","gender":"Male"},
{"id":275,"first_name":"Reuven","last_name":"Wenzel","email":"rwenzel7m@opera.com","gender":"Male"},
{"id":276,"first_name":"Johnathan","last_name":"Custy","email":"jcusty7n@ox.ac.uk","gender":"Male"},
{"id":277,"first_name":"Waneta","last_name":"Durrington","email":"wdurrington7o@csmonitor.com","gender":"Female"},
{"id":278,"first_name":"Cecile","last_name":"Charon","email":"ccharon7p@t.co","gender":"Female"},
{"id":279,"first_name":"Lark","last_name":"Skevington","email":"lskevington7q@youtu.be","gender":"Polygender"},
{"id":280,"first_name":"Moshe","last_name":"Pluvier","email":"mpluvier7r@answers.com","gender":"Male"},
{"id":281,"first_name":"Maria","last_name":"Dinsale","email":"mdinsale7s@netvibes.com","gender":"Female"},
{"id":282,"first_name":"Athene","last_name":"Monday","email":"amonday7t@soundcloud.com","gender":"Genderfluid"},
{"id":283,"first_name":"Melvin","last_name":"Channer","email":"mchanner7u@msn.com","gender":"Male"},
{"id":284,"first_name":"Perry","last_name":"Filipczynski","email":"pfilipczynski7v@gravatar.com","gender":"Female"},
{"id":285,"first_name":"Barb","last_name":"Gary","email":"bgary7w@theatlantic.com","gender":"Female"},
{"id":286,"first_name":"Lars","last_name":"Piola","email":"lpiola7x@phpbb.com","gender":"Male"},
{"id":287,"first_name":"Ailene","last_name":"Seaman","email":"aseaman7y@myspace.com","gender":"Female"},
{"id":288,"first_name":"Guglielmo","last_name":"Tunbridge","email":"gtunbridge7z@cmu.edu","gender":"Male"},
{"id":289,"first_name":"Patrice","last_name":"Stile","email":"pstile80@mashable.com","gender":"Male"},
{"id":290,"first_name":"Malvina","last_name":"Tebbitt","email":"mtebbitt81@ucla.edu","gender":"Female"},
{"id":291,"first_name":"Jo ann","last_name":"Camus","email":"jcamus82@illinois.edu","gender":"Female"},
{"id":292,"first_name":"Shoshanna","last_name":"Lamerton","email":"slamerton83@imageshack.us","gender":"Female"},
{"id":293,"first_name":"Bent","last_name":"Mungin","email":"bmungin84@liveinternet.ru","gender":"Male"},
{"id":294,"first_name":"Felipe","last_name":"Trobridge","email":"ftrobridge85@wp.com","gender":"Genderqueer"},
{"id":295,"first_name":"Leonard","last_name":"Briant","email":"lbriant86@hp.com","gender":"Male"},
{"id":296,"first_name":"Charisse","last_name":"Spatig","email":"cspatig87@vistaprint.com","gender":"Female"},
{"id":297,"first_name":"Tim","last_name":"Balshaw","email":"tbalshaw88@miibeian.gov.cn","gender":"Male"},
{"id":298,"first_name":"Orrin","last_name":"Paley","email":"opaley89@wikipedia.org","gender":"Genderfluid"},
{"id":299,"first_name":"Trumaine","last_name":"Adderson","email":"tadderson8a@flavors.me","gender":"Male"},
{"id":300,"first_name":"Zedekiah","last_name":"Pyrton","email":"zpyrton8b@businessweek.com","gender":"Male"},
{"id":301,"first_name":"Brianne","last_name":"Tarling","email":"btarling8c@wisc.edu","gender":"Female"},
{"id":302,"first_name":"Allys","last_name":"Van Baaren","email":"avanbaaren8d@forbes.com","gender":"Female"},
{"id":303,"first_name":"Merci","last_name":"Dray","email":"mdray8e@chronoengine.com","gender":"Female"},
{"id":304,"first_name":"Tuck","last_name":"Sevin","email":"tsevin8f@tumblr.com","gender":"Male"},
{"id":305,"first_name":"Lilia","last_name":"Arnecke","email":"larnecke8g@ehow.com","gender":"Female"},
{"id":306,"first_name":"Gawain","last_name":"Roubeix","email":"groubeix8h@yolasite.com","gender":"Genderfluid"},
{"id":307,"first_name":"Flss","last_name":"Siverns","email":"fsiverns8i@wikia.com","gender":"Female"},
{"id":308,"first_name":"Hetty","last_name":"Simic","email":"hsimic8j@comcast.net","gender":"Female"},
{"id":309,"first_name":"Elfreda","last_name":"McKearnen","email":"emckearnen8k@ow.ly","gender":"Female"},
{"id":310,"first_name":"Allayne","last_name":"Ciccotto","email":"aciccotto8l@amazonaws.com","gender":"Male"},
{"id":311,"first_name":"Forrest","last_name":"Stanlick","email":"fstanlick8m@goo.gl","gender":"Genderfluid"},
{"id":312,"first_name":"Mathilda","last_name":"Yerrall","email":"myerrall8n@furl.net","gender":"Female"},
{"id":313,"first_name":"Eachelle","last_name":"Kurten","email":"ekurten8o@t.co","gender":"Female"},
{"id":314,"first_name":"Erinn","last_name":"Rebichon","email":"erebichon8p@barnesandnoble.com","gender":"Female"},
{"id":315,"first_name":"Consalve","last_name":"O'Dyvoy","email":"codyvoy8q@alibaba.com","gender":"Male"},
{"id":316,"first_name":"Quincey","last_name":"Jaskowicz","email":"qjaskowicz8r@usgs.gov","gender":"Agender"},
{"id":317,"first_name":"Barrie","last_name":"Hekkert","email":"bhekkert8s@tumblr.com","gender":"Male"},
{"id":318,"first_name":"Amargo","last_name":"Orring","email":"aorring8t@ft.com","gender":"Female"},
{"id":319,"first_name":"Roland","last_name":"Spawton","email":"rspawton8u@whitehouse.gov","gender":"Male"},
{"id":320,"first_name":"Britte","last_name":"Buske","email":"bbuske8v@examiner.com","gender":"Female"},
{"id":321,"first_name":"Dacie","last_name":"Youster","email":"dyouster8w@china.com.cn","gender":"Female"},
{"id":322,"first_name":"Jeni","last_name":"O'Corrin","email":"jocorrin8x@typepad.com","gender":"Female"},
{"id":323,"first_name":"Parrnell","last_name":"O'Corr","email":"pocorr8y@privacy.gov.au","gender":"Bigender"},
{"id":324,"first_name":"Hildy","last_name":"Giovannelli","email":"hgiovannelli8z@netvibes.com","gender":"Female"},
{"id":325,"first_name":"Josepha","last_name":"Padbury","email":"jpadbury90@geocities.com","gender":"Female"},
{"id":326,"first_name":"Joanie","last_name":"Bromidge","email":"jbromidge91@behance.net","gender":"Female"},
{"id":327,"first_name":"Shandra","last_name":"Mackneis","email":"smackneis92@youtube.com","gender":"Non-binary"},
{"id":328,"first_name":"Chev","last_name":"Ulyatt","email":"culyatt93@mapy.cz","gender":"Male"},
{"id":329,"first_name":"Guglielmo","last_name":"Fillingham","email":"gfillingham94@moonfruit.com","gender":"Male"},
{"id":330,"first_name":"Gustav","last_name":"Wudeland","email":"gwudeland95@github.io","gender":"Genderqueer"},
{"id":331,"first_name":"Whittaker","last_name":"Marchello","email":"wmarchello96@blogger.com","gender":"Male"},
{"id":332,"first_name":"Pippo","last_name":"Gillyatt","email":"pgillyatt97@cdbaby.com","gender":"Male"},
{"id":333,"first_name":"Merralee","last_name":"Dolbey","email":"mdolbey98@bloglovin.com","gender":"Genderfluid"},
{"id":334,"first_name":"Bealle","last_name":"MacPherson","email":"bmacpherson99@macromedia.com","gender":"Male"},
{"id":335,"first_name":"Jakob","last_name":"McDonald","email":"jmcdonald9a@tripadvisor.com","gender":"Male"},
{"id":336,"first_name":"Harlen","last_name":"Probbing","email":"hprobbing9b@free.fr","gender":"Male"},
{"id":337,"first_name":"Otes","last_name":"Brandt","email":"obrandt9c@people.com.cn","gender":"Male"},
{"id":338,"first_name":"Kennan","last_name":"Atrill","email":"katrill9d@alibaba.com","gender":"Bigender"},
{"id":339,"first_name":"Shayne","last_name":"Hillen","email":"shillen9e@paginegialle.it","gender":"Female"},
{"id":340,"first_name":"Merrie","last_name":"Croney","email":"mcroney9f@state.tx.us","gender":"Female"},
{"id":341,"first_name":"Daron","last_name":"Netherwood","email":"dnetherwood9g@wired.com","gender":"Male"},
{"id":342,"first_name":"Auroora","last_name":"Gable","email":"agable9h@ed.gov","gender":"Female"},
{"id":343,"first_name":"Tracy","last_name":"Murton","email":"tmurton9i@msu.edu","gender":"Female"},
{"id":344,"first_name":"Jerry","last_name":"Rollo","email":"jrollo9j@accuweather.com","gender":"Male"},
{"id":345,"first_name":"Herculie","last_name":"Diddams","email":"hdiddams9k@marriott.com","gender":"Male"},
{"id":346,"first_name":"Johna","last_name":"Ofield","email":"jofield9l@businessweek.com","gender":"Female"},
{"id":347,"first_name":"Carissa","last_name":"Castagnasso","email":"ccastagnasso9m@upenn.edu","gender":"Female"},
{"id":348,"first_name":"Damien","last_name":"Ratlee","email":"dratlee9n@gov.uk","gender":"Male"},
{"id":349,"first_name":"Drud","last_name":"Braker","email":"dbraker9o@whitehouse.gov","gender":"Male"},
{"id":350,"first_name":"Fianna","last_name":"Leaves","email":"fleaves9p@pbs.org","gender":"Female"},
{"id":351,"first_name":"Grover","last_name":"Demangeon","email":"gdemangeon9q@barnesandnoble.com","gender":"Male"},
{"id":352,"first_name":"Waring","last_name":"McNally","email":"wmcnally9r@economist.com","gender":"Genderfluid"},
{"id":353,"first_name":"Leah","last_name":"Rives","email":"lrives9s@instagram.com","gender":"Female"},
{"id":354,"first_name":"Delmar","last_name":"Geering","email":"dgeering9t@cornell.edu","gender":"Male"},
{"id":355,"first_name":"Myrtia","last_name":"Paull","email":"mpaull9u@about.me","gender":"Female"},
{"id":356,"first_name":"Bonita","last_name":"Mugleston","email":"bmugleston9v@reference.com","gender":"Female"},
{"id":357,"first_name":"Juliana","last_name":"Constable","email":"jconstable9w@t-online.de","gender":"Genderqueer"},
{"id":358,"first_name":"Barnabas","last_name":"Hancill","email":"bhancill9x@seattletimes.com","gender":"Male"},
{"id":359,"first_name":"Morly","last_name":"Edland","email":"medland9y@storify.com","gender":"Male"},
{"id":360,"first_name":"Rorie","last_name":"Novotne","email":"rnovotne9z@howstuffworks.com","gender":"Female"},
{"id":361,"first_name":"Diannne","last_name":"Snoddon","email":"dsnoddona0@yolasite.com","gender":"Female"},
{"id":362,"first_name":"Kerby","last_name":"Schimonek","email":"kschimoneka1@netscape.com","gender":"Male"},
{"id":363,"first_name":"Jacky","last_name":"Hastwall","email":"jhastwalla2@angelfire.com","gender":"Male"},
{"id":364,"first_name":"Early","last_name":"Lawty","email":"elawtya3@xing.com","gender":"Male"},
{"id":365,"first_name":"Bobby","last_name":"Mullin","email":"bmullina4@webeden.co.uk","gender":"Non-binary"},
{"id":366,"first_name":"Vaughn","last_name":"Girdlestone","email":"vgirdlestonea5@angelfire.com","gender":"Male"},
{"id":367,"first_name":"Konstance","last_name":"Martinson","email":"kmartinsona6@latimes.com","gender":"Female"},
{"id":368,"first_name":"Thomas","last_name":"Batson","email":"tbatsona7@hao123.com","gender":"Male"},
{"id":369,"first_name":"Neel","last_name":"Holtaway","email":"nholtawaya8@ucoz.com","gender":"Polygender"},
{"id":370,"first_name":"Frasier","last_name":"Mateuszczyk","email":"fmateuszczyka9@nyu.edu","gender":"Male"},
{"id":371,"first_name":"Averell","last_name":"Grinvalds","email":"agrinvaldsaa@mapquest.com","gender":"Male"},
{"id":372,"first_name":"Bridie","last_name":"Nolleth","email":"bnollethab@soundcloud.com","gender":"Non-binary"},
{"id":373,"first_name":"Jarrett","last_name":"Reasce","email":"jreasceac@google.pl","gender":"Bigender"},
{"id":374,"first_name":"Melina","last_name":"Synnott","email":"msynnottad@boston.com","gender":"Female"},
{"id":375,"first_name":"Carina","last_name":"Maloney","email":"cmaloneyae@blinklist.com","gender":"Female"},
{"id":376,"first_name":"Kissiah","last_name":"Crigin","email":"kcriginaf@delicious.com","gender":"Genderfluid"},
{"id":377,"first_name":"Eloisa","last_name":"Farndon","email":"efarndonag@fotki.com","gender":"Female"},
{"id":378,"first_name":"Gaultiero","last_name":"Peagrim","email":"gpeagrimah@addtoany.com","gender":"Male"},
{"id":379,"first_name":"Janeva","last_name":"Heathorn","email":"jheathornai@pagesperso-orange.fr","gender":"Female"},
{"id":380,"first_name":"Sheela","last_name":"O'Driscoll","email":"sodriscollaj@tumblr.com","gender":"Female"},
{"id":381,"first_name":"Barbara","last_name":"Minerdo","email":"bminerdoak@pen.io","gender":"Agender"},
{"id":382,"first_name":"Quintina","last_name":"McQuorkell","email":"qmcquorkellal@businesswire.com","gender":"Female"},
{"id":383,"first_name":"Adair","last_name":"Tootell","email":"atootellam@blog.com","gender":"Male"},
{"id":384,"first_name":"Mabel","last_name":"Jurgensen","email":"mjurgensenan@wunderground.com","gender":"Female"},
{"id":385,"first_name":"Jocelyne","last_name":"Yeabsley","email":"jyeabsleyao@europa.eu","gender":"Female"},
{"id":386,"first_name":"Cass","last_name":"Landrieu","email":"clandrieuap@google.fr","gender":"Male"},
{"id":387,"first_name":"Annie","last_name":"Itzak","email":"aitzakaq@mozilla.org","gender":"Female"},
{"id":388,"first_name":"Kimball","last_name":"Tothe","email":"ktothear@flickr.com","gender":"Male"},
{"id":389,"first_name":"Gill","last_name":"Meredyth","email":"gmeredythas@wired.com","gender":"Male"},
{"id":390,"first_name":"Robbin","last_name":"Athersmith","email":"rathersmithat@lycos.com","gender":"Female"},
{"id":391,"first_name":"Mead","last_name":"Litterick","email":"mlitterickau@cnn.com","gender":"Male"},
{"id":392,"first_name":"Dulcea","last_name":"Erlam","email":"derlamav@123-reg.co.uk","gender":"Polygender"},
{"id":393,"first_name":"Nessa","last_name":"Von Gladbach","email":"nvongladbachaw@slashdot.org","gender":"Female"},
{"id":394,"first_name":"Emmanuel","last_name":"Suarez","email":"esuarezax@mashable.com","gender":"Polygender"},
{"id":395,"first_name":"Brana","last_name":"Winham","email":"bwinhamay@taobao.com","gender":"Female"},
{"id":396,"first_name":"Jasun","last_name":"Pearch","email":"jpearchaz@cnn.com","gender":"Male"},
{"id":397,"first_name":"Cookie","last_name":"Rooms","email":"croomsb0@home.pl","gender":"Female"},
{"id":398,"first_name":"Cobb","last_name":"Stannas","email":"cstannasb1@lycos.com","gender":"Male"},
{"id":399,"first_name":"Baillie","last_name":"Cathery","email":"bcatheryb2@163.com","gender":"Male"},
{"id":400,"first_name":"Quincy","last_name":"Pinching","email":"qpinchingb3@nytimes.com","gender":"Male"},
{"id":401,"first_name":"Cathy","last_name":"Rawlinson","email":"crawlinsonb4@mapy.cz","gender":"Female"},
{"id":402,"first_name":"Ruby","last_name":"Whitaker","email":"rwhitakerb5@artisteer.com","gender":"Female"},
{"id":403,"first_name":"Jeffy","last_name":"Aucourte","email":"jaucourteb6@va.gov","gender":"Male"},
{"id":404,"first_name":"Nance","last_name":"Kermon","email":"nkermonb7@ustream.tv","gender":"Female"},
{"id":405,"first_name":"Vassili","last_name":"Longhirst","email":"vlonghirstb8@noaa.gov","gender":"Male"},
{"id":406,"first_name":"York","last_name":"Peagram","email":"ypeagramb9@ask.com","gender":"Male"},
{"id":407,"first_name":"Dennie","last_name":"Arstall","email":"darstallba@umn.edu","gender":"Male"},
{"id":408,"first_name":"Karlan","last_name":"Jorgensen","email":"kjorgensenbb@dell.com","gender":"Male"},
{"id":409,"first_name":"Xever","last_name":"Northbridge","email":"xnorthbridgebc@multiply.com","gender":"Male"},
{"id":410,"first_name":"Dena","last_name":"Mugglestone","email":"dmugglestonebd@icq.com","gender":"Female"},
{"id":411,"first_name":"Lutero","last_name":"Etter","email":"letterbe@zimbio.com","gender":"Male"},
{"id":412,"first_name":"Virginia","last_name":"Etherington","email":"vetheringtonbf@disqus.com","gender":"Female"},
{"id":413,"first_name":"Hermon","last_name":"Rymill","email":"hrymillbg@time.com","gender":"Male"},
{"id":414,"first_name":"Filmore","last_name":"Domenici","email":"fdomenicibh@flickr.com","gender":"Male"},
{"id":415,"first_name":"Dall","last_name":"Mourge","email":"dmourgebi@fc2.com","gender":"Male"},
{"id":416,"first_name":"Rudd","last_name":"Churchlow","email":"rchurchlowbj@businessweek.com","gender":"Male"},
{"id":417,"first_name":"Petra","last_name":"Ledgard","email":"pledgardbk@purevolume.com","gender":"Female"},
{"id":418,"first_name":"Wit","last_name":"Meadowcroft","email":"wmeadowcroftbl@china.com.cn","gender":"Male"},
{"id":419,"first_name":"Rosanne","last_name":"McKew","email":"rmckewbm@jimdo.com","gender":"Female"},
{"id":420,"first_name":"Ximenez","last_name":"Bundey","email":"xbundeybn@berkeley.edu","gender":"Agender"},
{"id":421,"first_name":"Leticia","last_name":"Studde","email":"lstuddebo@hp.com","gender":"Female"},
{"id":422,"first_name":"Wallie","last_name":"Paulin","email":"wpaulinbp@ucla.edu","gender":"Bigender"},
{"id":423,"first_name":"Yetta","last_name":"Dhenin","email":"ydheninbq@squidoo.com","gender":"Female"},
{"id":424,"first_name":"Willem","last_name":"Josilowski","email":"wjosilowskibr@rakuten.co.jp","gender":"Male"},
{"id":425,"first_name":"Tedda","last_name":"Trowler","email":"ttrowlerbs@1und1.de","gender":"Female"},
{"id":426,"first_name":"Woody","last_name":"Rentenbeck","email":"wrentenbeckbt@arizona.edu","gender":"Male"},
{"id":427,"first_name":"Queenie","last_name":"Peile","email":"qpeilebu@bigcartel.com","gender":"Female"},
{"id":428,"first_name":"Leigha","last_name":"Marmon","email":"lmarmonbv@photobucket.com","gender":"Genderfluid"},
{"id":429,"first_name":"Calley","last_name":"Denisyuk","email":"cdenisyukbw@zdnet.com","gender":"Female"},
{"id":430,"first_name":"Milicent","last_name":"Cownden","email":"mcowndenbx@networksolutions.com","gender":"Female"},
{"id":431,"first_name":"Morey","last_name":"Mellows","email":"mmellowsby@washingtonpost.com","gender":"Male"},
{"id":432,"first_name":"Lindsey","last_name":"Capsey","email":"lcapseybz@hatena.ne.jp","gender":"Male"},
{"id":433,"first_name":"Monti","last_name":"Buttress","email":"mbuttressc0@accuweather.com","gender":"Male"},
{"id":434,"first_name":"Mariele","last_name":"Castanie","email":"mcastaniec1@netvibes.com","gender":"Female"},
{"id":435,"first_name":"Yetta","last_name":"Marvel","email":"ymarvelc2@devhub.com","gender":"Female"},
{"id":436,"first_name":"Zorina","last_name":"Katzmann","email":"zkatzmannc3@samsung.com","gender":"Female"},
{"id":437,"first_name":"Stesha","last_name":"Frede","email":"sfredec4@phoca.cz","gender":"Female"},
{"id":438,"first_name":"Brion","last_name":"Izakof","email":"bizakofc5@paypal.com","gender":"Male"},
{"id":439,"first_name":"Bartram","last_name":"LLelweln","email":"bllelwelnc6@latimes.com","gender":"Non-binary"},
{"id":440,"first_name":"Kaia","last_name":"Axelby","email":"kaxelbyc7@rakuten.co.jp","gender":"Female"},
{"id":441,"first_name":"Ramsay","last_name":"Erratt","email":"rerrattc8@sitemeter.com","gender":"Male"},
{"id":442,"first_name":"Madelin","last_name":"Spreag","email":"mspreagc9@cafepress.com","gender":"Female"},
{"id":443,"first_name":"Dannie","last_name":"Redsall","email":"dredsallca@usatoday.com","gender":"Female"},
{"id":444,"first_name":"Wash","last_name":"Younge","email":"wyoungecb@google.com.au","gender":"Male"},
{"id":445,"first_name":"Burnaby","last_name":"Redhole","email":"bredholecc@va.gov","gender":"Male"},
{"id":446,"first_name":"Delmor","last_name":"Brideau","email":"dbrideaucd@meetup.com","gender":"Male"},
{"id":447,"first_name":"Harris","last_name":"Filipchikov","email":"hfilipchikovce@typepad.com","gender":"Male"},
{"id":448,"first_name":"Egon","last_name":"Yve","email":"eyvecf@w3.org","gender":"Male"},
{"id":449,"first_name":"Orrin","last_name":"Hanne","email":"ohannecg@studiopress.com","gender":"Male"},
{"id":450,"first_name":"Nichole","last_name":"Waistell","email":"nwaistellch@weibo.com","gender":"Male"},
{"id":451,"first_name":"Schuyler","last_name":"Philippson","email":"sphilippsonci@princeton.edu","gender":"Male"},
{"id":452,"first_name":"Cariotta","last_name":"Troni","email":"ctronicj@shop-pro.jp","gender":"Female"},
{"id":453,"first_name":"Hercules","last_name":"Ratlee","email":"hratleeck@cdbaby.com","gender":"Male"},
{"id":454,"first_name":"Ravid","last_name":"Ottewill","email":"rottewillcl@goo.gl","gender":"Male"},
{"id":455,"first_name":"Kellen","last_name":"Cooksley","email":"kcooksleycm@twitpic.com","gender":"Male"},
{"id":456,"first_name":"Mellie","last_name":"Bridgen","email":"mbridgencn@un.org","gender":"Female"},
{"id":457,"first_name":"Konstanze","last_name":"Walpole","email":"kwalpoleco@mediafire.com","gender":"Female"},
{"id":458,"first_name":"Dredi","last_name":"Loveitt","email":"dloveittcp@wiley.com","gender":"Female"},
{"id":459,"first_name":"Barrie","last_name":"Lyffe","email":"blyffecq@lycos.com","gender":"Female"},
{"id":460,"first_name":"Collin","last_name":"Espadas","email":"cespadascr@quantcast.com","gender":"Polygender"},
{"id":461,"first_name":"Mersey","last_name":"Gervaise","email":"mgervaisecs@sphinn.com","gender":"Bigender"},
{"id":462,"first_name":"Auguste","last_name":"Mogey","email":"amogeyct@yolasite.com","gender":"Genderqueer"},
{"id":463,"first_name":"Jason","last_name":"Leatherbarrow","email":"jleatherbarrowcu@nps.gov","gender":"Male"},
{"id":464,"first_name":"Carola","last_name":"Ivchenko","email":"civchenkocv@squarespace.com","gender":"Female"},
{"id":465,"first_name":"Jabez","last_name":"Lorens","email":"jlorenscw@123-reg.co.uk","gender":"Male"},
{"id":466,"first_name":"Kilian","last_name":"Cudde","email":"kcuddecx@bloglovin.com","gender":"Male"},
{"id":467,"first_name":"Frannie","last_name":"Egdal","email":"fegdalcy@nature.com","gender":"Female"},
{"id":468,"first_name":"Gerianna","last_name":"Stockney","email":"gstockneycz@baidu.com","gender":"Female"},
{"id":469,"first_name":"Cirillo","last_name":"Minchella","email":"cminchellad0@slate.com","gender":"Male"},
{"id":470,"first_name":"Ashlin","last_name":"Marchello","email":"amarchellod1@cbc.ca","gender":"Male"},
{"id":471,"first_name":"Solomon","last_name":"Kayzer","email":"skayzerd2@unicef.org","gender":"Male"},
{"id":472,"first_name":"Tessa","last_name":"Vaugham","email":"tvaughamd3@elpais.com","gender":"Female"},
{"id":473,"first_name":"Josy","last_name":"Corless","email":"jcorlessd4@livejournal.com","gender":"Female"},
{"id":474,"first_name":"Nobie","last_name":"Knowles","email":"nknowlesd5@twitpic.com","gender":"Male"},
{"id":475,"first_name":"Sanson","last_name":"McReedy","email":"smcreedyd6@about.me","gender":"Male"},
{"id":476,"first_name":"Izak","last_name":"Parmer","email":"iparmerd7@discovery.com","gender":"Polygender"},
{"id":477,"first_name":"Izzy","last_name":"Thumim","email":"ithumimd8@jimdo.com","gender":"Male"},
{"id":478,"first_name":"Isidoro","last_name":"Habbert","email":"ihabbertd9@qq.com","gender":"Male"},
{"id":479,"first_name":"Nahum","last_name":"Simister","email":"nsimisterda@umn.edu","gender":"Male"},
{"id":480,"first_name":"Risa","last_name":"Jozsef","email":"rjozsefdb@altervista.org","gender":"Female"},
{"id":481,"first_name":"Xylia","last_name":"Hedger","email":"xhedgerdc@ifeng.com","gender":"Female"},
{"id":482,"first_name":"Osbert","last_name":"Burvill","email":"oburvilldd@drupal.org","gender":"Male"},
{"id":483,"first_name":"Adriena","last_name":"Moncreif","email":"amoncreifde@netscape.com","gender":"Female"},
{"id":484,"first_name":"Arney","last_name":"Zanicchelli","email":"azanicchellidf@gizmodo.com","gender":"Male"},
{"id":485,"first_name":"Cathy","last_name":"Fordy","email":"cfordydg@chron.com","gender":"Female"},
{"id":486,"first_name":"Reggis","last_name":"Poleye","email":"rpoleyedh@cam.ac.uk","gender":"Male"},
{"id":487,"first_name":"Lorena","last_name":"Prestidge","email":"lprestidgedi@tamu.edu","gender":"Female"},
{"id":488,"first_name":"Marlyn","last_name":"Lias","email":"mliasdj@digg.com","gender":"Female"},
{"id":489,"first_name":"Zorina","last_name":"Mowles","email":"zmowlesdk@alibaba.com","gender":"Female"},
{"id":490,"first_name":"Mavis","last_name":"Fibbit","email":"mfibbitdl@discovery.com","gender":"Female"},
{"id":491,"first_name":"Venus","last_name":"Flaonier","email":"vflaonierdm@opera.com","gender":"Female"},
{"id":492,"first_name":"Hughie","last_name":"Feehily","email":"hfeehilydn@chron.com","gender":"Male"},
{"id":493,"first_name":"Edithe","last_name":"Baribal","email":"ebaribaldo@ovh.net","gender":"Female"},
{"id":494,"first_name":"Darryl","last_name":"Unstead","email":"dunsteaddp@smh.com.au","gender":"Female"},
{"id":495,"first_name":"Ade","last_name":"Tather","email":"atatherdq@hud.gov","gender":"Male"},
{"id":496,"first_name":"Arlana","last_name":"Ply","email":"aplydr@wufoo.com","gender":"Female"},
{"id":497,"first_name":"Barthel","last_name":"Finlaison","email":"bfinlaisonds@prlog.org","gender":"Male"},
{"id":498,"first_name":"Westleigh","last_name":"Kentwell","email":"wkentwelldt@list-manage.com","gender":"Male"},
{"id":499,"first_name":"Cathie","last_name":"Cannam","email":"ccannamdu@howstuffworks.com","gender":"Female"},
{"id":500,"first_name":"Hanan","last_name":"Tokley","email":"htokleydv@engadget.com","gender":"Male"}]